Introduction to FARS data & tools package
…
To load data for a year, use the make_filename() and fars_read() functions:

fars_2014 <- fars_read(make_filename(2014))

Make sure that the data file is in current working directory.

Load data for multiple years

To load data for several years, use the fars_read_years() function with a vector of years as an input. This returns a list of of the tbl_df (the tidyverse data frame) containing the month and year for each fatal accident.

fars_2014_2015 <- fars_read_years(years = c(2014, 2015))
fars_2014_2015[[1]]

## # A tibble: 30,056 x 2
##    MONTH  year
##    <int> <dbl>
##  1     1 2014.
##  2     1 2014.
##  3     1 2014.
##  4     1 2014.
##  5     1 2014.
##  6     1 2014.
##  7     1 2014.
##  8     1 2014.
##  9     1 2014.
## 10     1 2014.
## # ... with 30,046 more rows
…
